^C:\USERS\SERAS\DESKTOP\SEROVERLAY\SERHAX\SERHAX\OFFSETS.CPP
/c /Zi /nologo /W3 /WX- /Od /Oy- /D WIN32 /D _DEBUG /D _WINDOWS /Gm /EHsc /RTC1 /MDd /GS /fp:precise /Zc:wchar_t /Zc:forScope /Zc:inline /Fo"DEBUG\\" /Fd"DEBUG\VC140.PDB" /Gd /TP /analyze- C:\USERS\SERAS\DESKTOP\SEROVERLAY\SERHAX\SERHAX\OFFSETS.CPP
^C:\USERS\SERAS\DESKTOP\SEROVERLAY\SERHAX\SERHAX\PMEMORY.CPP
/c /Zi /nologo /W3 /WX- /Od /Oy- /D WIN32 /D _DEBUG /D _WINDOWS /Gm /EHsc /RTC1 /MDd /GS /fp:precise /Zc:wchar_t /Zc:forScope /Zc:inline /Fo"DEBUG\\" /Fd"DEBUG\VC140.PDB" /Gd /TP /analyze- C:\USERS\SERAS\DESKTOP\SEROVERLAY\SERHAX\SERHAX\PMEMORY.CPP
^C:\USERS\SERAS\DESKTOP\SEROVERLAY\SERHAX\SERHAX\SOURCE.CPP
/c /Zi /nologo /W3 /WX- /Od /Oy- /D WIN32 /D _DEBUG /D _WINDOWS /Gm /EHsc /RTC1 /MDd /GS /fp:precise /Zc:wchar_t /Zc:forScope /Zc:inline /Fo"DEBUG\\" /Fd"DEBUG\VC140.PDB" /Gd /TP /analyze- C:\USERS\SERAS\DESKTOP\SEROVERLAY\SERHAX\SERHAX\SOURCE.CPP
